Percent unemployed, Murders per annum per 1000000 inhabitants
6.2, 11.2
6.4, 13.4
9.3, 40.7
5.3,  5.3
7.3, 24.8
5.9, 12.7
6.4, 20.9
7.6, 35.7
4.9,  8.7
6.4,  9.6
6.0, 14.5
7.4, 26.9
5.8, 15.7
8.6, 36.2
6.5, 18.1
8.3, 28.9
6.7, 14.9
8.6, 25.8
8.4, 21.7
6.7, 25.7